README
…
The results show a significantly different impact of ‘Activating factor 42’ on gene expression across different cell lines, which requires further exploration.

Data Cleaning

Date: 2024-03-05

The code used for data cleaning can be found at the following path.

[1] "D:/download/final project/R/clean_wif_func.R"

Due to inconsistencies in the case of data names, the names of the two cell lines and the two treatments are standardized by converting them to lowercase and then capitalizing their first letters. Additionally, the name variable is cleaned to standardize the names.

The cleaned data file can be found as follows.

# A tibble: 88 × 5
   cell_line treatment name   conc gene_expression
   <chr>     <chr>     <chr> <dbl>           <dbl>
 1 Wild-type Placebo   XIb       0            5.05
 2 Wild-type Placebo   cDZ       0            5.92
 3 Wild-type Placebo   XIb       1            4.15
 4 Wild-type Placebo   cDZ       1            3.34
 5 Wild-type Placebo   XIb       2            6.67
 6 Wild-type Placebo   cDZ       2            5.54
 7 Wild-type Placebo   XIb       3            6.35
 8 Wild-type Placebo   cDZ       3            4.89
 9 Wild-type Placebo   XIb       4            5.48
10 Wild-type Placebo   cDZ       4            3.44
# ℹ 78 more rows
…
